\relax 
\providecommand\hyper@newdestlabel[2]{}
\providecommand*\new@tpo@label[2]{}
\providecommand\HyperFirstAtBeginDocument{\AtBeginDocument}
\HyperFirstAtBeginDocument{\ifx\hyper@anchor\@undefined
\global\let\oldcontentsline\contentsline
\gdef\contentsline#1#2#3#4{\oldcontentsline{#1}{#2}{#3}}
\global\let\oldnewlabel\newlabel
\gdef\newlabel#1#2{\newlabelxx{#1}#2}
\gdef\newlabelxx#1#2#3#4#5#6{\oldnewlabel{#1}{{#2}{#3}}}
\AtEndDocument{\ifx\hyper@anchor\@undefined
\let\contentsline\oldcontentsline
\let\newlabel\oldnewlabel
\fi}
\fi}
\global\let\hyper@last\relax 
\gdef\HyperFirstAtBeginDocument#1{#1}
\providecommand\HyField@AuxAddToFields[1]{}
\providecommand\HyField@AuxAddToCoFields[2]{}
\AC@reset@newl@bel
\select@language{english}
\@writefile{toc}{\select@language{english}}
\@writefile{lof}{\select@language{english}}
\@writefile{lot}{\select@language{english}}
\@writefile{toc}{\vspace {-\cftbeforepartskip }}
\@writefile{lof}{\deactivateaddvspace  }
\@writefile{lot}{\deactivateaddvspace  }
\@writefile{toc}{\contentsline {chapter}{\nonumberline \spacedlowsmallcaps  {Abstract}}{ii}{chapter*.1}}
\@writefile{lof}{\addvspace {10\p@ }}
\@writefile{lot}{\addvspace {10\p@ }}
\@writefile{lol}{\addvspace {10\p@ }}
\newlabel{chap:chapter_abstract}{{}{ii}{\texorpdfstring {\spacedlowsmallcaps {Abstract}}{Abstract}}{chapter*.1}{}}
\@writefile{exp}{\contentsline {todo}{\numberline {1}test}{ii}{todo.1}}
\@writefile{toc}{\contentsline {chapter}{\nonumberline \spacedlowsmallcaps  {Popular Abstract}}{iv}{chapter*.2}}
\@writefile{lof}{\addvspace {10\p@ }}
\@writefile{lot}{\addvspace {10\p@ }}
\@writefile{lol}{\addvspace {10\p@ }}
\newlabel{chap:chapter_popular_abstract}{{1}{iv}{\texorpdfstring {\spacedlowsmallcaps {Popular Abstract}}{Popular Abstract}}{chapter*.2}{}}
\citation{nomoto_2013}
\citation{lee_triggered_formation}
\citation{langer_2012_supernova}
\citation{sana_2012}
\citation{blauw_1961,renzo_2018_runaway}
\citation{gw170814,gw170817}
\citation{woosley_2017}
\@writefile{toc}{\contentsline {chapter}{\numberline {1}\spacedlowsmallcaps  {Introduction}}{1}{chapter.1}}
\@writefile{lof}{\addvspace {10\p@ }}
\@writefile{lot}{\addvspace {10\p@ }}
\@writefile{lol}{\addvspace {10\p@ }}
\newlabel{chap:introduction}{{1}{1}{\texorpdfstring {\spacedlowsmallcaps {Introduction}}{Introduction}}{chapter.1}{}}
\@writefile{toc}{\contentsline {section}{\numberline {1.1}Aim of this study}{2}{section.1.1}}
\newlabel{sec:aim}{{1.1}{2}{Aim of this study}{section.1.1}{}}
\citation{vink_2001}
\citation{2017A&A...603A.118R}
\citation{1979ApJ...232..409H}
\@writefile{toc}{\contentsline {chapter}{\numberline {2}\spacedlowsmallcaps  {Theoretical background}}{3}{chapter.2}}
\@writefile{lof}{\addvspace {10\p@ }}
\@writefile{lot}{\addvspace {10\p@ }}
\@writefile{lol}{\addvspace {10\p@ }}
\newlabel{chap:theory_and_background}{{2}{3}{\texorpdfstring {\spacedlowsmallcaps {Theoretical background}}{Theoretical background}}{chapter.2}{}}
\@writefile{toc}{\contentsline {section}{\numberline {2.1}Single star evolution}{3}{section.2.1}}
\newlabel{sec:single_stellar_evolution}{{2.1}{3}{Single star evolution}{section.2.1}{}}
\@writefile{toc}{\contentsline {section}{\numberline {2.2}Black hole formation}{3}{section.2.2}}
\newlabel{sec:fate_of_massive_stars}{{2.2}{3}{Black hole formation}{section.2.2}{}}
\citation{janka_2012_cc}
\citation{janka_2012_cc}
\citation{neutrino_shock_2001,sasi_2012}
\citation{lovegrove_woosley_2013}
\citation{fryer_2012,wong_fallback_2014}
\citation{breit_wheeler_1934}
\@writefile{toc}{\contentsline {subsection}{\numberline {2.2.1}Core collapse supernovae}{4}{subsection.2.2.1}}
\newlabel{sec:ccsn}{{2.2.1}{4}{Core collapse supernovae}{subsection.2.2.1}{}}
\citation{langer_2012}
\citation{langer_2012}
\@writefile{toc}{\contentsline {subsection}{\numberline {2.2.2}(Pulsational) Pair instability supernovae}{5}{subsection.2.2.2}}
\newlabel{sec:ppisn}{{2.2.2}{5}{(Pulsational) Pair instability supernovae}{subsection.2.2.2}{}}
\newlabel{eq:pair_creation}{{2.1}{5}{(Pulsational) Pair instability supernovae}{equation.2.1}{}}
\citation{pols_1998}
\citation{fraley_1968}
\@writefile{lof}{\contentsline {figure}{\numberline {1}{\ignorespaces Overview of the central temperature and density of single stars. The different blue lines indicate different initial masses and final fates (see labels). The exact values of these initial masses are dependent on rotation, metallicity and other physical properties of the star. In this figure we see that for a temperature between log($T_{C}/K$)=8.5-9 and a density below log($\rho _{c}/cm^{3})\simeq 6$ the pair-production occurs. Taken from \citet  {langer_2012}, figure 11.\relax }}{6}{figure.caption.4}}
\providecommand*\caption@xref[2]{\@setref\relax\@undefined{#1}}
\newlabel{fig:temp_density_plot}{{1}{6}{Overview of the central temperature and density of single stars. The different blue lines indicate different initial masses and final fates (see labels). The exact values of these initial masses are dependent on rotation, metallicity and other physical properties of the star. In this figure we see that for a temperature between log($T_{C}/K$)=8.5-9 and a density below log($\rho _{c}/cm^{3})\simeq 6$ the pair-production occurs. Taken from \citet {langer_2012}, figure 11.\relax }{figure.caption.4}{}}
\citation{woosley_2017}
\citation{woosley_heger_2015}
\citation{vink_2001}
\citation{woosley_2017}
\citation{georgy_magnetic_ppisn_2017}
\citation{woosley_2017}
\citation{woosley_2017}
\citation{pols2011stellar}
\citation{eggleton_1983}
\citation{paczynski_1981}
\citation{cataclysmic}
\citation{yungelson_supernova1a}
\citation{isotropic_reemission_heuvel}
\@writefile{toc}{\contentsline {section}{\numberline {2.3}Binary stellar evolution}{8}{section.2.3}}
\newlabel{sec:binary_stellar_evolution}{{2.3}{8}{Binary stellar evolution}{section.2.3}{}}
\citation{paczynski_1976}
\citation{janka_2013}
\citation{janka_2017}
\citation{kalogera_1996,mitalas_1976}
\citation{blauw_1961,renzo_2018_runaway}
\citation{blauw_1961}
\@writefile{toc}{\contentsline {subsection}{\numberline {2.3.1}SN kicks/Blaauw kicks}{9}{subsection.2.3.1}}
\newlabel{sec:sn_blauw_kick}{{2.3.1}{9}{SN kicks/Blaauw kicks}{subsection.2.3.1}{}}
\citation{einstein_1916,einstein_1918}
\@writefile{toc}{\contentsline {subsection}{\numberline {2.3.2}Influence of PPISN}{10}{subsection.2.3.2}}
\newlabel{sec:influence_of_ppisn}{{2.3.2}{10}{Influence of PPISN}{subsection.2.3.2}{}}
\@writefile{toc}{\contentsline {section}{\numberline {2.4}Gravitational waves}{10}{section.2.4}}
\newlabel{sec:gravitational_waves}{{2.4}{10}{Gravitational waves}{section.2.4}{}}
\citation{peters_1964}
\citation{2017PhRvL.118v1101A}
\citation{mandel_2018}
\newlabel{eq:inspiral_time}{{2.2}{11}{Gravitational waves}{equation.2.2}{}}
\newlabel{eq:chirpmass}{{2.3}{11}{Gravitational waves}{equation.2.3}{}}
\citation{mink_2016_chem_homogeneous,marchant_2016,mandel_demink_2016}
\citation{ziosi_2014}
\citation{antonini_2016}
\citation{rodrigues_2016}
\@writefile{toc}{\contentsline {section}{\numberline {2.5}Formation channels}{12}{section.2.5}}
\newlabel{merging_systems}{{2.5}{12}{Formation channels}{section.2.5}{}}
\@writefile{toc}{\contentsline {subsubsection}{Isolated binary evolution}{12}{section.2.5}}
\@writefile{toc}{\contentsline {subsubsection}{Dynamical formation}{12}{section.2.5}}
\citation{stevenson_2017}
\citation{belczynski_2008_startrack}
\citation{izzard_2004,izzard_2006,izzard_2009,mink_2013,schneider_2015,izzard_2018}
\citation{kruckow_2018}
\citation{sevn_spera}
\citation{donder_2004}
\@writefile{toc}{\contentsline {chapter}{\numberline {3}\spacedlowsmallcaps  {Methods}}{14}{chapter.3}}
\@writefile{lof}{\addvspace {10\p@ }}
\@writefile{lot}{\addvspace {10\p@ }}
\@writefile{lol}{\addvspace {10\p@ }}
\newlabel{chap:chapter_methods}{{3}{14}{\texorpdfstring {\spacedlowsmallcaps {Methods}}{Methods}}{chapter.3}{}}
\@writefile{toc}{\contentsline {section}{\numberline {3.1}Population synthesis and \textit  {binary\_c}}{14}{section.3.1}}
\newlabel{sec:population_synthesis}{{3.1}{14}{Population synthesis and \textit {binary\_c}}{section.3.1}{}}
\citation{moe_disteffano_2017}
\citation{kroupa2001variation}
\newlabel{eq:eq_population_probability}{{3.1}{15}{Population synthesis and \textit {binary\_c}}{equation.3.1}{}}
\@writefile{toc}{\contentsline {section}{\numberline {3.2}Initial distributions \& Fiducial model}{15}{section.3.2}}
\newlabel{sec:populations_distributions}{{3.2}{15}{Initial distributions \& Fiducial model}{section.3.2}{}}
\newlabel{eq:primary_mass_distribution}{{3.2}{15}{Initial distributions \& Fiducial model}{equation.3.2}{}}
\citation{sana_2012}
\citation{sana_2012}
\citation{mink_2015}
\citation{1979ApJ...232..409H}
\newlabel{eq:mass_ratio_distribution}{{3.3}{16}{Initial distributions \& Fiducial model}{equation.3.3}{}}
\newlabel{eq:period_distribution}{{3.4}{16}{Initial distributions \& Fiducial model}{equation.3.4}{}}
\citation{hurley_2000}
\citation{belczynski_maximum_mass}
\citation{greiner_2001}
\citation{orosz_2011}
\citation{hurley_2000}
\citation{belczynski_maximum_mass}
\citation{belczynski_maximum_mass}
\@writefile{toc}{\contentsline {section}{\numberline {3.3}LBV algorithms}{17}{section.3.3}}
\newlabel{sec:lbv_methods}{{3.3}{17}{LBV algorithms}{section.3.3}{}}
\newlabel{eq:lbv_massloss}{{3.5}{17}{LBV algorithms}{equation.3.5}{}}
\citation{hurley_2000}
\citation{belczynski_maximum_mass}
\citation{hurley_2000}
\citation{belczynski_maximum_mass}
\citation{belczynski_maximum_mass}
\citation{fryer_2012}
\@writefile{lof}{\contentsline {figure}{\numberline {2}{\ignorespaces Remnant mass as function of initial (ZAMS) mass for multiple metallicity values. These results only include the objects that become become black holes. The left figure shows the initial mass vs. remnant mass with the LBV algorithm from \citet  {hurley_2000}, the right figure shows the same simulation but with the use of the LBV massloss rate as by \citet  {belczynski_maximum_mass}.\relax }}{18}{figure.caption.5}}
\newlabel{fig:single_star_evolution_multiple_metallicities}{{2}{18}{Remnant mass as function of initial (ZAMS) mass for multiple metallicity values. These results only include the objects that become become black holes. The left figure shows the initial mass vs. remnant mass with the LBV algorithm from \citet {hurley_2000}, the right figure shows the same simulation but with the use of the LBV massloss rate as by \citet {belczynski_maximum_mass}.\relax }{figure.caption.5}{}}
\citation{fryer_2012}
\citation{belczynski_ppisn}
\citation{spera_mapelli}
\citation{woosley_2017}
\@writefile{toc}{\contentsline {subsubsection}{Fallback}{19}{figure.caption.5}}
\newlabel{sec:fallback}{{3.3}{19}{Fallback}{figure.caption.5}{}}
\newlabel{eq:fallback}{{3.6}{19}{Fallback}{equation.3.6}{}}
\@writefile{toc}{\contentsline {section}{\numberline {3.4}PPISN algorithms}{19}{section.3.4}}
\newlabel{sec:ppisn_algorithms}{{3.4}{19}{PPISN algorithms}{section.3.4}{}}
\citation{belczynski_ppisn}
\citation{0004-637X-749-1-91}
\citation{belczynski_ppisn}
\citation{belczynski_ppisn}
\citation{belczynski_ppisn}
\citation{woosley_2017}
\citation{spera_mapelli}
\citation{woosley_2017}
\citation{belczynski_ppisn}
\@writefile{toc}{\contentsline {subsection}{\numberline {3.4.1}Belczynski}{20}{subsection.3.4.1}}
\newlabel{sec:method_belczynksi}{{3.4.1}{20}{Belczynski}{subsection.3.4.1}{}}
\citation{spera_mapelli}
\@writefile{toc}{\contentsline {subsection}{\numberline {3.4.2}Spera \& Mapelli}{21}{subsection.3.4.2}}
\newlabel{sec:method_spera}{{3.4.2}{21}{Spera \& Mapelli}{subsection.3.4.2}{}}
\newlabel{eq:alpha_p}{{3.7}{21}{Spera \& Mapelli}{equation.3.7}{}}
\citation{dominik_2_2013}
\citation{mink_2015}
\@writefile{lof}{\contentsline {figure}{\numberline {3}{\ignorespaces Value map of $\alpha _{p}$, the factor mapping the pre-SN helium core mass to the remnant mass, where M$_{He}$ is the pre-SN helium core mass and M$_{final}$ is the total pre-SN mass of the star.\relax }}{22}{figure.caption.6}}
\newlabel{fig:spera_alpha_p}{{3}{22}{Value map of $\alpha _{p}$, the factor mapping the pre-SN helium core mass to the remnant mass, where M$_{He}$ is the pre-SN helium core mass and M$_{final}$ is the total pre-SN mass of the star.\relax }{figure.caption.6}{}}
\@writefile{toc}{\contentsline {section}{\numberline {3.5}Merger rate calculation}{22}{section.3.5}}
\newlabel{sec:method_merger}{{3.5}{22}{Merger rate calculation}{section.3.5}{}}
\newlabel{eq:r_gal}{{3.8}{22}{Merger rate calculation}{equation.3.8}{}}
\citation{dominik_2_2013}
\citation{fishbach_holz_2017}
\citation{fishbach_holz_2017}
\citation{fishbach_holz_2017}
\newlabel{eq:r_vol}{{3.9}{23}{Merger rate calculation}{equation.3.9}{}}
\@writefile{lof}{\contentsline {figure}{\numberline {4}{\ignorespaces The redshifted spacetime volume of sensitivity of the LIGO/VIRGO detectors, which is based on the detector sensitivity and accounting for cosmology. From \citet  [][]{fishbach_holz_2017}, figure 1.\relax }}{23}{figure.caption.7}}
\newlabel{fig:fishbach_holz_plot}{{4}{23}{The redshifted spacetime volume of sensitivity of the LIGO/VIRGO detectors, which is based on the detector sensitivity and accounting for cosmology. From \citet [][]{fishbach_holz_2017}, figure 1.\relax }{figure.caption.7}{}}
\citation{barkat_1967,fraley_1968,woosley_2017}
\@writefile{toc}{\contentsline {chapter}{\numberline {4}\spacedlowsmallcaps  {Black hole masses from single stars}}{24}{chapter.4}}
\@writefile{lof}{\addvspace {10\p@ }}
\@writefile{lot}{\addvspace {10\p@ }}
\@writefile{lol}{\addvspace {10\p@ }}
\newlabel{chap:results_single}{{4}{24}{\texorpdfstring {\spacedlowsmallcaps {Black hole masses from single stars}}{Black hole masses from single stars}}{chapter.4}{}}
\@writefile{toc}{\contentsline {section}{\numberline {4.1}Mass components and fallback}{24}{section.4.1}}
\newlabel{sec:mass_components_and_fallback}{{4.1}{24}{Mass components and fallback}{section.4.1}{}}
\citation{belczynski_ppisn}
\citation{spera_mapelli}
\@writefile{lof}{\contentsline {figure}{\numberline {5}{\ignorespaces Top: Overview of pre-SN total mass, He core mass and CO core mass of single stars for with an initial mass of up to 300 $M_{\odot }$\ at Z = 0.002. Bottom: Fallback fraction for the same range of stars. This fraction determines the amount of material that falls back on the proto-neutron star after a SN. This figure is based on the evolution of 2000 single stars.\relax }}{25}{figure.caption.8}}
\newlabel{fig:singlestar_mass_components}{{5}{25}{Top: Overview of pre-SN total mass, He core mass and CO core mass of single stars for with an initial mass of up to 300 \solarm \ at Z = 0.002. Bottom: Fallback fraction for the same range of stars. This fraction determines the amount of material that falls back on the proto-neutron star after a SN. This figure is based on the evolution of 2000 single stars.\relax }{figure.caption.8}{}}
\@writefile{toc}{\contentsline {section}{\numberline {4.2}PPISN in single star evolution}{25}{section.4.2}}
\newlabel{sec:section_ppisn_single_star}{{4.2}{25}{PPISN in single star evolution}{section.4.2}{}}
\@writefile{toc}{\contentsline {subsection}{\numberline {4.2.1}Belczynski et al.}{25}{subsection.4.2.1}}
\newlabel{sec:sub_belczynski}{{4.2.1}{25}{Belczynski et al}{subsection.4.2.1}{}}
\@writefile{toc}{\contentsline {subsection}{\numberline {4.2.2}Spera et al.}{26}{subsection.4.2.2}}
\newlabel{sec:sub_spera}{{4.2.2}{26}{Spera et al}{subsection.4.2.2}{}}
\@writefile{lof}{\contentsline {figure}{\numberline {6}{\ignorespaces Single stellar evolution displaying the influence of both Spera \& Mapelli's algorithm and B16\ on the final mass of a star at a metallicity value of Z = 0.1 $Z_{\odot }$. The shaded regions and dotted lines display the different regimes (yellow/left for normal core-collapse SNe, green/middle for PPISNe and red/right for PISNe). The different algorithms show different boundary values for the regions, the boundaries of B16\ are indicated on the top x-axis and the boundaries of SM17\ are indicated at the lower x-axis.\relax }}{26}{figure.caption.9}}
\newlabel{fig:belc_and_spera_initial_final_0002}{{6}{26}{Single stellar evolution displaying the influence of both Spera \& Mapelli's algorithm and \belc \ on the final mass of a star at a metallicity value of Z = 0.1 \solarz . The shaded regions and dotted lines display the different regimes (yellow/left for normal core-collapse SNe, green/middle for PPISNe and red/right for PISNe). The different algorithms show different boundary values for the regions, the boundaries of \belc \ are indicated on the top x-axis and the boundaries of \spera \ are indicated at the lower x-axis.\relax }{figure.caption.9}{}}
\citation{dominik_1_2012}
\citation{dominik_1_2012}
\citation{dominik_1_2012}
\citation{xu_li_2010}
\citation{dominik_1_2012}
\@writefile{toc}{\contentsline {chapter}{\numberline {5}\spacedlowsmallcaps  {Validation of \textit  {binary\_c}\ for the very massive stars regime in binary systems}}{27}{chapter.5}}
\@writefile{lof}{\addvspace {10\p@ }}
\@writefile{lot}{\addvspace {10\p@ }}
\@writefile{lol}{\addvspace {10\p@ }}
\newlabel{chap:results_comparison}{{5}{27}{\texorpdfstring {\spacedlowsmallcaps {Validation of \binaryc \ for the very massive stars regime in binary systems}}{Validation of \binaryc \ for the very massive stars regime in binary systems}}{chapter.5}{}}
\@writefile{toc}{\contentsline {section}{\numberline {5.1}Total mass distribution}{28}{section.5.1}}
\newlabel{sec:totalmass_comparison}{{5.1}{28}{Total mass distribution}{section.5.1}{}}
\@writefile{lof}{\contentsline {figure}{\numberline {7}{\ignorespaces The total mass distribution of BBH systems merging within the hubble time. The top panel shows the results for \textit  {binary\_c}\ where the y-axis displays the probability of systems within the mass bins. The lower panel shows the results of \textit  {StarTrack}\ where the y-axis displays the number count of systems within the mass bins.\relax }}{29}{figure.caption.10}}
\newlabel{fig:total_mass_z0002_comparison_startrack}{{7}{29}{The total mass distribution of BBH systems merging within the hubble time. The top panel shows the results for \binaryc \ where the y-axis displays the probability of systems within the mass bins. The lower panel shows the results of \startrack \ where the y-axis displays the number count of systems within the mass bins.\relax }{figure.caption.10}{}}
\@writefile{toc}{\contentsline {section}{\numberline {5.2}Delay time distribution}{29}{section.5.2}}
\newlabel{sec:delaytime_comparison}{{5.2}{29}{Delay time distribution}{section.5.2}{}}
\@writefile{lof}{\contentsline {figure}{\numberline {8}{\ignorespaces A log-log depiction of the delay time distribution of merging BBH systems with initial masses (both M1 and M2) below 150 $M_{\odot }$. The distribution is truncated at the Hubble time. The top panel shows the results of \textit  {binary\_c}, the bottom panel shows the results of \textit  {StarTrack}\ ('ABHBH.002'), both at metallicity Z = 0.002\relax }}{30}{figure.caption.11}}
\newlabel{fig:delay_time_z0002_comparison_startrack}{{8}{30}{A log-log depiction of the delay time distribution of merging BBH systems with initial masses (both M1 and M2) below 150 \solarm . The distribution is truncated at the Hubble time. The top panel shows the results of \binaryc , the bottom panel shows the results of \startrack \ ('ABHBH.002'), both at metallicity Z = 0.002\relax }{figure.caption.11}{}}
\@writefile{toc}{\contentsline {section}{\numberline {5.3}Individual remnant masses}{30}{section.5.3}}
\newlabel{sec:individual_comparison}{{5.3}{30}{Individual remnant masses}{section.5.3}{}}
\@writefile{lof}{\contentsline {figure}{\numberline {9}{\ignorespaces Distribution of primary remnant masses (m1, solid blue line) and secondary remnant masses (m2, dashed orange line) of BBH systems merging within the Hubble time at Z = 0.002. m1 and m2 refers to the respectively initially most massive and least massive star. The top panel shows the results of \textit  {binary\_c}, and the bottom panel shows the results of \textit  {StarTrack}.\relax }}{31}{figure.caption.12}}
\newlabel{fig:individual_masses_z0002_comparison_startrack}{{9}{31}{Distribution of primary remnant masses (m1, solid blue line) and secondary remnant masses (m2, dashed orange line) of BBH systems merging within the Hubble time at Z = 0.002. m1 and m2 refers to the respectively initially most massive and least massive star. The top panel shows the results of \binaryc , and the bottom panel shows the results of \startrack .\relax }{figure.caption.12}{}}
\@writefile{lof}{\contentsline {figure}{\numberline {10}{\ignorespaces Scatter distribution of primary remnant masses (x-axis) and secondary remnant masses (y-axis) of BBH systems merging within the Hubble time at Z = 0.002. The left panel shows the results of \textit  {binary\_c}, and the right panel shows the results of \textit  {StarTrack}.\relax }}{32}{figure.caption.13}}
\newlabel{fig:scatter_individual_masses_z0002_comparison_startrack}{{10}{32}{Scatter distribution of primary remnant masses (x-axis) and secondary remnant masses (y-axis) of BBH systems merging within the Hubble time at Z = 0.002. The left panel shows the results of \binaryc , and the right panel shows the results of \startrack .\relax }{figure.caption.13}{}}
\@writefile{toc}{\contentsline {chapter}{\numberline {6}\spacedlowsmallcaps  {Impact of PPISN on the binary black hole mergers}}{33}{chapter.6}}
\@writefile{lof}{\addvspace {10\p@ }}
\@writefile{lot}{\addvspace {10\p@ }}
\@writefile{lol}{\addvspace {10\p@ }}
\newlabel{chap:results_ppisn_merger}{{6}{33}{\texorpdfstring {\spacedlowsmallcaps {Impact of PPISN on the binary black hole mergers}}{Impact of PPISN on the binary black hole mergers}}{chapter.6}{}}
\@writefile{toc}{\contentsline {section}{\numberline {6.1}Stars undergoing PPISN in binary systems}{33}{section.6.1}}
\newlabel{sec:mass_ranges_ppisn}{{6.1}{33}{Stars undergoing PPISN in binary systems}{section.6.1}{}}
\citation{spera_mapelli}
\citation{belczynski_ppisn}
\@writefile{lof}{\contentsline {figure}{\numberline {11}{\ignorespaces Distribution showing mass range of stars that went PPISN resulting in a BBH for Z = 0.002. The left panel are the results of B16, where the solid line shows the mass range of the primary mass undergoing PPISN and the dashed line showing the secondary mass going PPISN. The right plot shows the same for SM17.\relax }}{34}{figure.caption.14}}
\newlabel{fig:massrange_ppisn_z0002}{{11}{34}{Distribution showing mass range of stars that went PPISN resulting in a BBH for Z = 0.002. The left panel are the results of \belc , where the solid line shows the mass range of the primary mass undergoing PPISN and the dashed line showing the secondary mass going PPISN. The right plot shows the same for \spera .\relax }{figure.caption.14}{}}
\@writefile{toc}{\contentsline {section}{\numberline {6.2}PPISN comparing different algorithms}{34}{section.6.2}}
\newlabel{sec:comparing_ppisn_algorithms}{{6.2}{34}{PPISN comparing different algorithms}{section.6.2}{}}
\@writefile{lof}{\contentsline {figure}{\numberline {12}{\ignorespaces The total mass distribution of BBH systems merging within the hubble time. From top to bottom the panels show the distributions resulting for \textit  {binary\_c}\ without PPISN, and models B16\ and SM17\ at Z = 0.002. The panel below (second) shows the ratios of the distributions at that mass bin. The third panel shows the distributions at Z = 0.0002, followed by the fourth panel at the bottom which shows the ratios again. The ratio of B16\ to No PPISN are the red circles, and for SM17\ are the blue squares.\relax }}{36}{figure.caption.15}}
\newlabel{fig:total_mass_z0002_z00002}{{12}{36}{The total mass distribution of BBH systems merging within the hubble time. From top to bottom the panels show the distributions resulting for \binaryc \ without PPISN, and models \belc \ and \spera \ at Z = 0.002. The panel below (second) shows the ratios of the distributions at that mass bin. The third panel shows the distributions at Z = 0.0002, followed by the fourth panel at the bottom which shows the ratios again. The ratio of \belc \ to No PPISN are the red circles, and for \spera \ are the blue squares.\relax }{figure.caption.15}{}}
\@writefile{lof}{\contentsline {figure}{\numberline {13}{\ignorespaces The chirp mass distribution of BBH systems merging within the hubble time. The top panel shows the results for \textit  {binary\_c}\ without PPISN, together with the distributions produced with B16\ and SM17. The bottom panel shows the ratio of PPISN/no PPISN per algorithm (red circle for B16, blue square for SM17).\relax }}{37}{figure.caption.16}}
\newlabel{fig:chirp_mass_z0002}{{13}{37}{The chirp mass distribution of BBH systems merging within the hubble time. The top panel shows the results for \binaryc \ without PPISN, together with the distributions produced with \belc \ and \spera . The bottom panel shows the ratio of PPISN/no PPISN per algorithm (red circle for \belc , blue square for \spera ).\relax }{figure.caption.16}{}}
\@writefile{lof}{\contentsline {figure}{\numberline {14}{\ignorespaces Distribution of primary remnant masses (solid blue lines) and secondary remnant masses (dashed orange lines) of BBH systems merging within the Hubble time at Z = 0.002. The top panel shows the results of \textit  {binary\_c}\ without PPISN. The middle panel shows the results of \textit  {binary\_c}\ with the prescription of Belczynski, and the bottom panel shows the \textit  {binary\_c}\ with results of prescription of Spera.\relax }}{38}{figure.caption.17}}
\newlabel{fig:remnants_m1m2_mass_z0002}{{14}{38}{Distribution of primary remnant masses (solid blue lines) and secondary remnant masses (dashed orange lines) of BBH systems merging within the Hubble time at Z = 0.002. The top panel shows the results of \binaryc \ without PPISN. The middle panel shows the results of \binaryc \ with the prescription of Belczynski, and the bottom panel shows the \binaryc \ with results of prescription of Spera.\relax }{figure.caption.17}{}}
\@writefile{lof}{\contentsline {figure}{\numberline {15}{\ignorespaces Density distribution of primary remnant masses (x-axis) and secondary remnant masses (y-axis) of BBH systems merging within the Hubble time at Z = 0.002. The left panel shows the results of \textit  {binary\_c}\ without PPISN, the central panel shows the results of the prescription of Belczynski, and the right panel shows the results of the prescription of Spera. The color indicates the cumulative probability per mass bin and the color scale is shown on the right. The masses are ordered so that M$_{1}^{BH}>$M$_{2}^{BH}$, regardless of which star formed it.\relax }}{39}{figure.caption.18}}
\newlabel{fig:density_remnants_m1m2_mass_z0002}{{15}{39}{Density distribution of primary remnant masses (x-axis) and secondary remnant masses (y-axis) of BBH systems merging within the Hubble time at Z = 0.002. The left panel shows the results of \binaryc \ without PPISN, the central panel shows the results of the prescription of Belczynski, and the right panel shows the results of the prescription of Spera. The color indicates the cumulative probability per mass bin and the color scale is shown on the right. The masses are ordered so that M$_{1}^{BH}>$M$_{2}^{BH}$, regardless of which star formed it.\relax }{figure.caption.18}{}}
\@writefile{lot}{\contentsline {table}{\numberline {1}{\ignorespaces Results of simulations with \textit  {binary\_c}\ at Z = 0.002 without PPISN for systems that merge within the Hubble time. The individual systems are weighted by their probability of occurring, but they are not weighted to the probabilty of detection. For the full table see table \ref  {tab:01z_comparison_table_full}.\relax }}{40}{table.caption.19}}
\newlabel{tab:01z_comparison_table}{{1}{40}{Results of simulations with \binaryc \ at Z = 0.002 without PPISN for systems that merge within the Hubble time. The individual systems are weighted by their probability of occurring, but they are not weighted to the probabilty of detection. For the full table see table \ref {tab:01z_comparison_table_full}.\relax }{table.caption.19}{}}
\@writefile{lot}{\contentsline {table}{\numberline {2}{\ignorespaces Overview of results for merging systems with Z = 0.1 $Z_{\odot }$\ where only the systems with the maximum black hole mass higher than 30 is included. See table \ref  {tab:01z_comparison_table_above_30_full} for more averaged quantities.\relax }}{41}{table.caption.20}}
\newlabel{tab:01z_comparison_table_above_30}{{2}{41}{Overview of results for merging systems with Z = 0.1 \solarz \ where only the systems with the maximum black hole mass higher than 30 is included. See table \ref {tab:01z_comparison_table_above_30_full} for more averaged quantities.\relax }{table.caption.20}{}}
\@writefile{toc}{\contentsline {section}{\numberline {6.3}Merger rate \& LIGO/VIRGO detectability}{42}{section.6.3}}
\newlabel{sec:sub_merger_rates}{{6.3}{42}{Merger rate \& LIGO/VIRGO detectability}{section.6.3}{}}
\@writefile{lot}{\contentsline {table}{\numberline {3}{\ignorespaces Milky Way equivalent merger rates and volumetric detection rates for merging black hole black hole systems at Z = 0.002, predicted with the results of \textit  {binary\_c}.\relax }}{42}{table.caption.21}}
\newlabel{tab:01z_mergerrate_table}{{3}{42}{Milky Way equivalent merger rates and volumetric detection rates for merging black hole black hole systems at Z = 0.002, predicted with the results of \binaryc .\relax }{table.caption.21}{}}
\citation{fishbach_holz_2017}
\@writefile{lot}{\contentsline {table}{\numberline {4}{\ignorespaces Milky Way equivalent merger rates and volumetric detection rates for merging black hole black hole systems at Z = 0.0002, predicted with the results of \textit  {binary\_c}.\relax }}{43}{table.caption.22}}
\newlabel{tab:001z_mergerrate_table}{{4}{43}{Milky Way equivalent merger rates and volumetric detection rates for merging black hole black hole systems at Z = 0.0002, predicted with the results of \binaryc .\relax }{table.caption.22}{}}
\@writefile{lof}{\contentsline {figure}{\numberline {16}{\ignorespaces Predicted chirp mass distribution of merging binary systems with Z = 0.002 using the results of \textit  {binary\_c}. This distribution is weighted according to the initial probability as assigned by \textit  {binary\_c}\ times the LIGO detection probability. After the weighting, the values have been normalized to the volumetric detection rate. The green histogram shows the results for \textit  {binary\_c}\ without PPISN, the red figure shows the results of B16, and the blue figure shows the results of SM17.\relax }}{44}{figure.caption.23}}
\newlabel{fig:0002_chirpmass_detection}{{16}{44}{Predicted chirp mass distribution of merging binary systems with Z = 0.002 using the results of \binaryc . This distribution is weighted according to the initial probability as assigned by \binaryc \ times the LIGO detection probability. After the weighting, the values have been normalized to the volumetric detection rate. The green histogram shows the results for \binaryc \ without PPISN, the red figure shows the results of \belc , and the blue figure shows the results of \spera .\relax }{figure.caption.23}{}}
\@writefile{toc}{\contentsline {chapter}{\numberline {7}\spacedlowsmallcaps  {Discussion and conclusion}}{45}{chapter.7}}
\@writefile{lof}{\addvspace {10\p@ }}
\@writefile{lot}{\addvspace {10\p@ }}
\@writefile{lol}{\addvspace {10\p@ }}
\newlabel{chap:discussion_conclusion}{{7}{45}{\texorpdfstring {\spacedlowsmallcaps {Discussion and conclusion}}{Discussion and conclusion}}{chapter.7}{}}
\@writefile{toc}{\contentsline {section}{\numberline {7.1}Discussion}{45}{section.7.1}}
\newlabel{sec:discussion}{{7.1}{45}{Discussion}{section.7.1}{}}
\@writefile{toc}{\contentsline {subsection}{\numberline {7.1.1}Computational caveats, correctness and comparison}{45}{subsection.7.1.1}}
\newlabel{sec:computational_caveats}{{7.1.1}{45}{Computational caveats, correctness and comparison}{subsection.7.1.1}{}}
\citation{belczynski_ppisn}
\citation{1989ApJ...340..426L}
\citation{timmes_1996}
\citation{spera_mapelli}
\citation{fryer_2012}
\citation{isotropic_reemission_heuvel}
\@writefile{toc}{\contentsline {subsection}{\numberline {7.1.2}PPISN and the implications}{47}{subsection.7.1.2}}
\citation{mink_2015}
\citation{dominik_1_2012}
\citation{mink_2015}
\citation{dominik_1_2012}
\citation{belczynski_ppisn}
\citation{spera_mapelli}
\citation{belczynski_ppisn}
\citation{spera_mapelli}
\citation{spera_mapelli}
\citation{mink_2016_chem_homogeneous}
\citation{yam_2009}
\citation{kozyreva_2015}
\citation{fishbach_holz_2017}
\@writefile{toc}{\contentsline {section}{\numberline {7.2}Summary \& Conclusion}{51}{section.7.2}}
\newlabel{sec:summary_conclusion}{{7.2}{51}{Summary \& Conclusion}{section.7.2}{}}
\@writefile{toc}{\contentsline {chapter}{\numberline {8}\spacedlowsmallcaps  {Acknowledgements}}{53}{chapter.8}}
\@writefile{lof}{\addvspace {10\p@ }}
\@writefile{lot}{\addvspace {10\p@ }}
\@writefile{lol}{\addvspace {10\p@ }}
\@writefile{toc}{\contentsline {chapter}{\numberline {9}\spacedlowsmallcaps  {appendix}}{54}{chapter.9}}
\@writefile{lof}{\addvspace {10\p@ }}
\@writefile{lot}{\addvspace {10\p@ }}
\@writefile{lol}{\addvspace {10\p@ }}
\newlabel{chap:appendix}{{9}{54}{\texorpdfstring {\spacedlowsmallcaps {appendix}}{appendix}}{chapter.9}{}}
\@writefile{toc}{\contentsline {section}{\numberline {9.1}Single star evolution}{54}{section.9.1}}
\newlabel{app:single_star_evolution}{{9.1}{54}{Single star evolution}{section.9.1}{}}
\@writefile{lof}{\contentsline {figure}{\numberline {17}{\ignorespaces Result of \textit  {binary\_c}\ for the stellar mass evolution over a range of different initial masses\relax }}{54}{figure.caption.24}}
\newlabel{fig:mass_evolution_single_01z}{{17}{54}{Result of \binaryc \ for the stellar mass evolution over a range of different initial masses\relax }{figure.caption.24}{}}
\@writefile{toc}{\contentsline {section}{\numberline {9.2}Mass distributions}{55}{section.9.2}}
\newlabel{app:mass_distributions}{{9.2}{55}{Mass distributions}{section.9.2}{}}
\@writefile{lof}{\contentsline {figure}{\numberline {18}{\ignorespaces The total mass distribution of all simulated BBH systems. The top panel shows the results for \textit  {binary\_c}\ without PPISN, together with the distributions produced with B16\ and SM17. The bottom panel shows the ratio of PPISN/no PPISN per algorithm (red circle for B16, blue square for SM17).\relax }}{55}{figure.caption.25}}
\newlabel{fig:total_mass_z0002_all_systems}{{18}{55}{The total mass distribution of all simulated BBH systems. The top panel shows the results for \binaryc \ without PPISN, together with the distributions produced with \belc \ and \spera . The bottom panel shows the ratio of PPISN/no PPISN per algorithm (red circle for \belc , blue square for \spera ).\relax }{figure.caption.25}{}}
\@writefile{toc}{\contentsline {subsection}{\numberline {9.2.1}Extended tables of results}{55}{subsection.9.2.1}}
\@writefile{lot}{\contentsline {table}{\numberline {5}{\ignorespaces Results of simulations at Z = 0.1 $Z_{\odot }$\ comparing the averages of several output parameters of the simulations without PPISN to the two different algorithms for systems that merge within the Hubble time. The individual systems are weighted by their probability of occuring, but they are not weighted to the probabilty of detection.\relax }}{56}{table.caption.26}}
\newlabel{tab:01z_comparison_table_full}{{5}{56}{Results of simulations at Z = 0.1 \solarz \ comparing the averages of several output parameters of the simulations without PPISN to the two different algorithms for systems that merge within the Hubble time. The individual systems are weighted by their probability of occuring, but they are not weighted to the probabilty of detection.\relax }{table.caption.26}{}}
\@writefile{lot}{\contentsline {table}{\numberline {6}{\ignorespaces Overview of results for merging systems with Z = 0.1 $Z_{\odot }$\ where only the systems with the maximum black hole mass higher than 30 is included.\relax }}{57}{table.caption.27}}
\newlabel{tab:01z_comparison_table_above_30_full}{{6}{57}{Overview of results for merging systems with Z = 0.1 \solarz \ where only the systems with the maximum black hole mass higher than 30 is included.\relax }{table.caption.27}{}}
\@writefile{lot}{\contentsline {table}{\numberline {7}{\ignorespaces Results of simulations at Z = 0.01 $Z_{\odot }$\ comparing the averages of several output parameters of the simulations without PPISN to the two different algorithms for systems that merge within the Hubble time.\relax }}{58}{table.caption.28}}
\newlabel{tab:001z_comparison_table_full}{{7}{58}{Results of simulations at Z = 0.01 \solarz \ comparing the averages of several output parameters of the simulations without PPISN to the two different algorithms for systems that merge within the Hubble time.\relax }{table.caption.28}{}}
\citation{spera_mapelli}
\@writefile{lot}{\contentsline {table}{\numberline {8}{\ignorespaces Overview of results for merging systems with Z = 0.01 $Z_{\odot }$\ where only the systems with the maximum black hole mass higher than 30 is included.\relax }}{59}{table.caption.29}}
\newlabel{tab:001z_comparison_table_above_30_full}{{8}{59}{Overview of results for merging systems with Z = 0.01 \solarz \ where only the systems with the maximum black hole mass higher than 30 is included.\relax }{table.caption.29}{}}
\@writefile{toc}{\contentsline {subsection}{\numberline {9.2.2}Prescription Spera \& Mapelli}{59}{subsection.9.2.2}}
\newlabel{app:spera_formula}{{9.2.2}{59}{Prescription Spera \& Mapelli}{subsection.9.2.2}{}}
\newlabel{eq:f_spera}{{9.1}{59}{Prescription Spera \& Mapelli}{equation.9.1}{}}
\newlabel{eq:k_spera}{{9.2}{59}{Prescription Spera \& Mapelli}{equation.9.2}{}}
\newlabel{eq:s_spera}{{9.3}{59}{Prescription Spera \& Mapelli}{equation.9.3}{}}
\newlabel{eq:alpha_p_spera}{{9.4}{60}{Prescription Spera \& Mapelli}{equation.9.4}{}}
\newlabel{eq:alpha_p_2}{{9.5}{60}{Prescription Spera \& Mapelli}{equation.9.5}{}}
\@writefile{toc}{\contentsline {section}{\numberline {9.3}\textit  {binary\_c}\ settings}{60}{section.9.3}}
\newlabel{sec:binaryc_settings}{{9.3}{60}{\binaryc \ settings}{section.9.3}{}}
\bibstyle{unsrtnat}
\bibdata{MSCthesis_david_hendriks_bibliography}
\bibcite{nomoto_2013}{{1}{2013}{{{Nomoto} et~al.}}{{{Nomoto}, {Kobayashi}, and {Tominaga}}}}
\bibcite{lee_triggered_formation}{{2}{2007}{{{Lee} and {Chen}}}{{}}}
\bibcite{langer_2012_supernova}{{3}{2012{a}}{{Langer}}{{}}}
\bibcite{sana_2012}{{4}{2012}{{Sana et~al.}}{{Sana, de~Mink, de~Koter, Langer, Evans, Gieles, Gosset, Izzard, Le~Bouquin, and Schneider}}}
\bibcite{blauw_1961}{{5}{1961}{{Blaauw}}{{}}}
\bibcite{renzo_2018_runaway}{{6}{2018}{{{Renzo} et~al.}}{{{Renzo}, {Zapartas}, {de Mink}, {G{\"o}tberg}, {Justham}, {Farmer}, {Izzard}, {Toonen}, and {Sana}}}}
\bibcite{gw170814}{{7}{2017{a}}{{Abbott et~al.}}{{Abbott, Abbott, Abbott, Acernese, Ackley, Adams, Adams, and et~al.}}}
\bibcite{gw170817}{{8}{2017{b}}{{Abbott et~al.}}{{Abbott, Abbott, Abbott, Acernese, Ackley, Adams, and et~al.}}}
\bibcite{woosley_2017}{{9}{2017}{{Woosley}}{{}}}
\bibcite{vink_2001}{{10}{2001}{{{Vink} et~al.}}{{{Vink}, {de Koter}, and {Lamers}}}}
\bibcite{2017A&A...603A.118R}{{11}{2017}{{{Renzo} et~al.}}{{{Renzo}, {Ott}, {Shore}, and {de Mink}}}}
\@writefile{toc}{\contentsline {chapter}{Bibliography}{62}{chapter*.30}}
\bibcite{1979ApJ...232..409H}{{12}{1979}{{{Humphreys} and {Davidson}}}{{}}}
\bibcite{janka_2012_cc}{{13}{2012}{{Janka}}{{}}}
\bibcite{neutrino_shock_2001}{{14}{2001}{{Janka}}{{}}}
\bibcite{sasi_2012}{{15}{2012}{{{Hanke} et~al.}}{{{Hanke}, {Marek}, {M{\"u}ller}, and {Janka}}}}
\bibcite{lovegrove_woosley_2013}{{16}{2013}{{{Lovegrove} and {Woosley}}}{{}}}
\bibcite{fryer_2012}{{17}{2012}{{{Fryer} et~al.}}{{{Fryer}, {Belczynski}, {Wiktorowicz}, {Dominik}, {Kalogera}, and {Holz}}}}
\bibcite{wong_fallback_2014}{{18}{2014}{{{Wong} et~al.}}{{{Wong}, {Fryer}, {Ellinger}, {Rockefeller}, and {Kalogera}}}}
\bibcite{breit_wheeler_1934}{{19}{1934}{{Breit and Wheeler}}{{}}}
\bibcite{langer_2012}{{20}{2012{b}}{{Langer}}{{}}}
\bibcite{pols_1998}{{21}{1998}{{{Pols} et~al.}}{{{Pols}, {Schr{\"o}der}, {Hurley}, {Tout}, and {Eggleton}}}}
\bibcite{fraley_1968}{{22}{1968}{{Fraley}}{{}}}
\bibcite{woosley_heger_2015}{{23}{2015}{{{Woosley} and {Heger}}}{{}}}
\bibcite{georgy_magnetic_ppisn_2017}{{24}{2017}{{{Georgy} et~al.}}{{{Georgy}, {Meynet}, {Ekstr{\"o}m}, {Wade}, {Petit}, {Keszthelyi}, and {Hirschi}}}}
\bibcite{pols2011stellar}{{25}{2011}{{Pols}}{{}}}
\bibcite{eggleton_1983}{{26}{1983}{{Eggleton}}{{}}}
\bibcite{paczynski_1981}{{27}{1981}{{Paczynski}}{{}}}
\bibcite{cataclysmic}{{28}{2012}{{{Szkody} and {Gaensicke}}}{{}}}
\bibcite{yungelson_supernova1a}{{29}{1998}{{{Yungelson} and {Livio}}}{{}}}
\bibcite{isotropic_reemission_heuvel}{{30}{2006}{{{Tauris} and {van den Heuvel}}}{{}}}
\bibcite{paczynski_1976}{{31}{1976}{{Paczynski}}{{}}}
\bibcite{janka_2013}{{32}{2013}{{{Wongwathanarat} et~al.}}{{{Wongwathanarat}, {Janka}, and {M{\"u}ller}}}}
\bibcite{janka_2017}{{33}{2017}{{Janka}}{{}}}
\bibcite{kalogera_1996}{{34}{1996}{{Kalogera}}{{}}}
\bibcite{mitalas_1976}{{35}{1976}{{Mitalas}}{{}}}
\bibcite{einstein_1916}{{36}{1916}{{Einstein}}{{}}}
\bibcite{einstein_1918}{{37}{1918}{{Einstein}}{{}}}
\bibcite{peters_1964}{{38}{1964}{{Peters}}{{}}}
\bibcite{2017PhRvL.118v1101A}{{39}{2017}{{{Abbott} et~al.}}{{{Abbott}, {Abbott}, {Abbott}, {Acernese}, {Ackley}, {Adams}, {Adams}, {Addesso}, {Adhikari}, {Adya}, and et~al.}}}
\bibcite{mandel_2018}{{40}{2018}{{{Mandel} and {Farmer}}}{{}}}
\bibcite{mink_2016_chem_homogeneous}{{41}{2016}{{{de Mink} and {Mandel}}}{{}}}
\bibcite{marchant_2016}{{42}{2016}{{{Marchant} et~al.}}{{{Marchant}, {Langer}, {Podsiadlowski}, {Tauris}, and {Moriya}}}}
\bibcite{mandel_demink_2016}{{43}{2016}{{{Mandel} and {de Mink}}}{{}}}
\bibcite{ziosi_2014}{{44}{2014}{{{Ziosi} et~al.}}{{{Ziosi}, {Mapelli}, {Branchesi}, and {Tormen}}}}
\bibcite{antonini_2016}{{45}{2016}{{{Antonini} and {Rasio}}}{{}}}
\bibcite{rodrigues_2016}{{46}{2016}{{{Rodriguez} et~al.}}{{{Rodriguez}, {Chatterjee}, and {Rasio}}}}
\bibcite{stevenson_2017}{{47}{2017}{{{Stevenson} et~al.}}{{{Stevenson}, {Vigna-G{\'o}mez}, {Mandel}, {Barrett}, {Neijssel}, {Perkins}, and {de Mink}}}}
\bibcite{belczynski_2008_startrack}{{48}{2008}{{{Belczynski} et~al.}}{{{Belczynski}, {Kalogera}, {Rasio}, {Taam}, {Zezas}, {Bulik}, {Maccarone}, and {Ivanova}}}}
\bibcite{izzard_2004}{{49}{2004}{{{Izzard} et~al.}}{{{Izzard}, {Tout}, {Karakas}, and {Pols}}}}
\bibcite{izzard_2006}{{50}{2006}{{{Izzard} et~al.}}{{{Izzard}, {Dray}, {Karakas}, {Lugaro}, and {Tout}}}}
\bibcite{izzard_2009}{{51}{2009}{{{Izzard} et~al.}}{{{Izzard}, {Glebbeek}, {Stancliffe}, and {Pols}}}}
\bibcite{mink_2013}{{52}{2013}{{{de Mink} et~al.}}{{{de Mink}, {Langer}, {Izzard}, {Sana}, and {de Koter}}}}
\bibcite{schneider_2015}{{53}{2015}{{{Schneider} et~al.}}{{{Schneider}, {Izzard}, {Langer}, and {de Mink}}}}
\bibcite{izzard_2018}{{54}{2018}{{{Izzard} et~al.}}{{{Izzard}, {Preece}, {Jofre}, {Halabi}, {Masseron}, and {Tout}}}}
\bibcite{kruckow_2018}{{55}{2018}{{{Kruckow} et~al.}}{{{Kruckow}, {Tauris}, {Langer}, {Kramer}, and {Izzard}}}}
\bibcite{sevn_spera}{{56}{2015}{{{Spera} et~al.}}{{{Spera}, {Mapelli}, and {Bressan}}}}
\bibcite{donder_2004}{{57}{2004}{{{De Donder} and {Vanbeveren}}}{{}}}
\bibcite{moe_disteffano_2017}{{58}{2017}{{{Moe} and {Di Stefano}}}{{}}}
\bibcite{kroupa2001variation}{{59}{2001}{{Kroupa}}{{}}}
\bibcite{mink_2015}{{60}{2015}{{{de Mink} and {Belczynski}}}{{}}}
\bibcite{hurley_2000}{{61}{2000}{{{Hurley} et~al.}}{{{Hurley}, {Pols}, and {Tout}}}}
\bibcite{belczynski_maximum_mass}{{62}{2010}{{{Belczynski} et~al.}}{{{Belczynski}, {Bulik}, {Fryer}, {Ruiter}, {Valsecchi}, {Vink}, and {Hurley}}}}
\bibcite{greiner_2001}{{63}{2001}{{{Greiner} et~al.}}{{{Greiner}, {Cuby}, and {McCaughrean}}}}
\bibcite{orosz_2011}{{64}{2011}{{{Orosz} et~al.}}{{{Orosz}, {McClintock}, {Aufdenberg}, {Remillard}, {Reid}, {Narayan}, and {Gou}}}}
\bibcite{belczynski_ppisn}{{65}{2016}{{{Belczynski} et~al.}}{{{Belczynski}, {Heger}, {Gladysz}, {Ruiter}, {Woosley}, {Wiktorowicz}, {Chen}, {Bulik}, {O'Shaughnessy}, {Holz}, {Fryer}, and {Berti}}}}
\bibcite{spera_mapelli}{{66}{2017}{{{Spera} and {Mapelli}}}{{}}}
\bibcite{0004-637X-749-1-91}{{67}{2012}{{Fryer et~al.}}{{Fryer, Belczynski, Wiktorowicz, Dominik, Kalogera, and Holz}}}
\bibcite{dominik_2_2013}{{68}{2013}{{{Dominik} et~al.}}{{{Dominik}, {Belczynski}, {Fryer}, {Holz}, {Berti}, {Bulik}, {Mandel}, and {O'Shaughnessy}}}}
\bibcite{fishbach_holz_2017}{{69}{2017}{{{Fishbach} and {Holz}}}{{}}}
\bibcite{barkat_1967}{{70}{1967}{{Barkat et~al.}}{{Barkat, Rakavy, and Sack}}}
\bibcite{dominik_1_2012}{{71}{2012}{{{Dominik} et~al.}}{{{Dominik}, {Belczynski}, {Fryer}, {Holz}, {Berti}, {Bulik}, {Mandel}, and {O'Shaughnessy}}}}
\bibcite{xu_li_2010}{{72}{2010}{{{Xu} and {Li}}}{{}}}
\bibcite{1989ApJ...340..426L}{{73}{1989}{{{Lattimer} and {Yahil}}}{{}}}
\bibcite{timmes_1996}{{74}{1996}{{{Timmes} et~al.}}{{{Timmes}, {Woosley}, and {Weaver}}}}
\bibcite{yam_2009}{{75}{2009}{{{Gal-Yam} et~al.}}{{{Gal-Yam}, {Mazzali}, {Ofek}, {Nugent}, {Kulkarni}, {Kasliwal}, {Quimby}, {Filippenko}, {Cenko}, {Chornock}, {Waldman}, {Kasen}, {Sullivan}, {Beshore}, {Drake}, {Thomas}, {Bloom}, {Poznanski}, {Miller}, {Foley}, {Silverman}, {Arcavi}, {Ellis}, and {Deng}}}}
\bibcite{kozyreva_2015}{{76}{2015}{{{Kozyreva} and {Blinnikov}}}{{}}}
